\contentsline {section}{\numberline {1}Introduccion al proyecto}{1}{section.1}
\contentsline {section}{\numberline {2}Secci\IeC {\'o}n: A}{1}{section.2}
\contentsline {subsection}{\numberline {2.1}Elementary calculations }{1}{subsection.2.1}
\contentsline {subsection}{\numberline {2.2}Creating a Matrix}{1}{subsection.2.2}
\contentsline {subsection}{\numberline {2.3}Matrix Arithmetic}{1}{subsection.2.3}
\contentsline {subsection}{\numberline {2.4}Solving Systems of Linear Equations}{2}{subsection.2.4}
\contentsline {subsection}{\numberline {2.5}Integrating Differential Equations}{3}{subsection.2.5}
\contentsline {subsection}{\numberline {2.6}Producing Graphical Output}{8}{subsection.2.6}
\contentsline {section}{\numberline {3}Secci\IeC {\'o}n B:}{8}{section.3}
\contentsline {subsection}{\numberline {3.1}Programa del proyecto }{9}{subsection.3.1}
\contentsline {section}{\numberline {4} Secci\IeC {\'o}n: C}{10}{section.4}
\contentsline {subsection}{\numberline {4.1} Resumen de Texto }{10}{subsection.4.1}
\contentsline {section}{\numberline {5}Repositorio}{11}{section.5}
