\relax 
\providecommand\hyper@newdestlabel[2]{}
\providecommand\HyperFirstAtBeginDocument{\AtBeginDocument}
\HyperFirstAtBeginDocument{\ifx\hyper@anchor\@undefined
\global\let\oldcontentsline\contentsline
\gdef\contentsline#1#2#3#4{\oldcontentsline{#1}{#2}{#3}}
\global\let\oldnewlabel\newlabel
\gdef\newlabel#1#2{\newlabelxx{#1}#2}
\gdef\newlabelxx#1#2#3#4#5#6{\oldnewlabel{#1}{{#2}{#3}}}
\AtEndDocument{\ifx\hyper@anchor\@undefined
\let\contentsline\oldcontentsline
\let\newlabel\oldnewlabel
\fi}
\fi}
\global\let\hyper@last\relax 
\gdef\HyperFirstAtBeginDocument#1{#1}
\providecommand\HyField@AuxAddToFields[1]{}
\providecommand\HyField@AuxAddToCoFields[2]{}
\@writefile{toc}{\contentsline {section}{\numberline {1}Introduccion al proyecto}{1}{section.1}}
\@writefile{toc}{\contentsline {section}{\numberline {2}Secci\IeC {\'o}n: A}{1}{section.2}}
\@writefile{toc}{\contentsline {subsection}{\numberline {2.1}Elementary calculations }{1}{subsection.2.1}}
\@writefile{toc}{\contentsline {subsection}{\numberline {2.2}Creating a Matrix}{1}{subsection.2.2}}
\@writefile{toc}{\contentsline {subsection}{\numberline {2.3}Matrix Arithmetic}{1}{subsection.2.3}}
\@writefile{toc}{\contentsline {subsection}{\numberline {2.4}Solving Systems of Linear Equations}{2}{subsection.2.4}}
\@writefile{toc}{\contentsline {subsection}{\numberline {2.5}Integrating Differential Equations}{3}{subsection.2.5}}
\@writefile{toc}{\contentsline {subsection}{\numberline {2.6}Producing Graphical Output}{8}{subsection.2.6}}
\@writefile{toc}{\contentsline {section}{\numberline {3}Secci\IeC {\'o}n B:}{8}{section.3}}
\@writefile{toc}{\contentsline {subsection}{\numberline {3.1}Programa del proyecto }{9}{subsection.3.1}}
\@writefile{toc}{\contentsline {section}{\numberline {4} Secci\IeC {\'o}n: C}{10}{section.4}}
\@writefile{toc}{\contentsline {subsection}{\numberline {4.1} Resumen de Texto }{10}{subsection.4.1}}
\@writefile{toc}{\contentsline {section}{\numberline {5}Repositorio}{11}{section.5}}
